\relax 
\citation{extra6}
\citation{extra5}
\citation{wall}
\citation{ops}
\citation{extra3}
\citation{fpgaGP}
\@writefile{toc}{\contentsline {section}{\numberline {1}Introduction}{\thepage }}
\@writefile{toc}{\contentsline {section}{\numberline {2}Genetic Programming Overview}{\thepage }}
\citation{gp}
\citation{salmon}
\@writefile{lof}{\contentsline {figure}{\numberline {1}{\ignorespaces Example of Tree-based Individual used in Genetic Programming}}{\thepage }}
\newlabel{fig:GPTree}{{1}{\thepage }}
\newlabel{eq:fitness}{{1}{\thepage }}
\@writefile{toc}{\contentsline {section}{\numberline {3}Fitness Evaluation Function Design on an FPGA}{\thepage }}
\@writefile{lof}{\contentsline {figure}{\numberline {2}{\ignorespaces Genetic Program with FPGA acceleration highlight}}{\thepage }}
\newlabel{fig:accGA}{{2}{\thepage }}
\@writefile{lof}{\contentsline {figure}{\numberline {3}{\ignorespaces CPU - FPGA communication channel}}{\thepage }}
\newlabel{fig:cpufpga}{{3}{\thepage }}
\@writefile{toc}{\contentsline {section}{\numberline {4}Implementation Details of the Fitness Evaluation Function on an FPGA}{\thepage }}
\@writefile{toc}{\contentsline {section}{\numberline {5}Performance Evaluation}{\thepage }}
\newlabel{eq:power}{{2}{\thepage }}
\newlabel{eq:energy}{{3}{\thepage }}
\@writefile{toc}{\contentsline {subsection}{\numberline {5.1}Double-Precision Floating Point Solution}{\thepage }}
\@writefile{lot}{\contentsline {table}{\numberline {1}{\ignorespaces FPGA total resource usage expressed as a percentage of the total available resource on the chip for double point precision}}{\thepage }}
\newlabel{table:doubleRes}{{1}{\thepage }}
\@writefile{toc}{\contentsline {subsection}{\numberline {5.2}Single-Precision Floating Point Solution}{\thepage }}
\@writefile{lot}{\contentsline {table}{\numberline {2}{\ignorespaces FPGA total resource usage expressed as a percentage of the total available resource on the chip for single point precision}}{\thepage }}
\newlabel{table:singleRes}{{2}{\thepage }}
\@writefile{toc}{\contentsline {subsection}{\numberline {5.3}Fixed-Point Precision Solution}{\thepage }}
\@writefile{lot}{\contentsline {table}{\numberline {3}{\ignorespaces FPGA total resource usage expressed as a percentage of the total available resource on the chip for fixed point representation}}{\thepage }}
\newlabel{table:fixedRes}{{3}{\thepage }}
\@writefile{toc}{\contentsline {section}{\numberline {6}Acceleration Measurements}{\thepage }}
\newlabel{eq:speedup}{{8}{\thepage }}
\bibcite{wall}{1}
\bibcite{salmon}{2}
\bibcite{gp}{3}
\bibcite{extra6}{4}
\bibcite{extra5}{5}
\bibcite{extra3}{6}
\bibcite{ops}{7}
\bibcite{fpgagp}{8}
\@writefile{toc}{\contentsline {section}{\numberline {7}Future Work}{\thepage }}
\newlabel{eq:pipes}{{9}{\thepage }}
\@writefile{toc}{\contentsline {section}{\numberline {8}Conclusions}{\thepage }}
\@writefile{toc}{\contentsline {section}{\numberline {9}References}{\thepage }}
